{
    "server_address":"http://werty12121.redirectme.net",
    "server_port":665,
    "email":"amazing.game.tic.tac.toe@gmail.com",
    "email_login":"amazing.game.tic.tac.toe@gmail.com",
    "email_password":"zaq1@WSX"
}

